Manejo de Datos en R
…
.left-column[
### `select()`
]

.right-column[

```r
starwars<-starwars %>% 
  select(name,height,sex,species)
starwars
```

```
## # A tibble: 87 x 4
##    name               height sex    species
##    <chr>               <int> <chr>  <chr>  
##  1 Luke Skywalker        172 male   Human  
##  2 C-3PO                 167 none   Droid  
##  3 R2-D2                  96 none   Droid  
##  4 Darth Vader           202 male   Human  
##  5 Leia Organa           150 female Human  
##  6 Owen Lars             178 male   Human  
##  7 Beru Whitesun lars    165 female Human  
##  8 R5-D4                  97 none   Droid  
##  9 Biggs Darklighter     183 male   Human  
## 10 Obi-Wan Kenobi        182 male   Human  
## # ... with 77 more rows
```
…
---
.left-column[
### `select()`
### `mutate()`
]

.right-column[

```r
starwars %>% 
  mutate(hmts=height/100)
```

```
## # A tibble: 87 x 5
##    name               height sex    species  hmts
##    <chr>               <int> <chr>  <chr>   <dbl>
##  1 Luke Skywalker        172 male   Human    1.72
##  2 C-3PO                 167 none   Droid    1.67
##  3 R2-D2                  96 none   Droid    0.96
##  4 Darth Vader           202 male   Human    2.02
##  5 Leia Organa           150 female Human    1.5 
##  6 Owen Lars             178 male   Human    1.78
##  7 Beru Whitesun lars    165 female Human    1.65
##  8 R5-D4                  97 none   Droid    0.97
##  9 Biggs Darklighter     183 male   Human    1.83
## 10 Obi-Wan Kenobi        182 male   Human    1.82
## # ... with 77 more rows
```
…
.right-column[

```r
starwars %>% 
  filter(species=="Human")
```

```
## # A tibble: 35 x 4
##    name               height sex    species
##    <chr>               <int> <chr>  <chr>  
##  1 Luke Skywalker        172 male   Human  
##  2 Darth Vader           202 male   Human  
##  3 Leia Organa           150 female Human  
##  4 Owen Lars             178 male   Human  
##  5 Beru Whitesun lars    165 female Human  
##  6 Biggs Darklighter     183 male   Human  
##  7 Obi-Wan Kenobi        182 male   Human  
##  8 Anakin Skywalker      188 male   Human  
##  9 Wilhuff Tarkin        180 male   Human  
## 10 Han Solo              180 male   Human  
## # ... with 25 more rows
```
…
.right-column[

```r
starwars %>% 
* arrange(desc(height))
```

```
## # A tibble: 87 x 4
##    name         height sex    species 
##    <chr>         <int> <chr>  <chr>   
##  1 Yarael Poof     264 male   Quermian
##  2 Tarfful         234 male   Wookiee 
##  3 Lama Su         229 male   Kaminoan
##  4 Chewbacca       228 male   Wookiee 
##  5 Roos Tarpals    224 male   Gungan  
##  6 Grievous        216 male   Kaleesh 
##  7 Taun We         213 female Kaminoan
##  8 Rugor Nass      206 male   Gungan  
##  9 Tion Medon      206 male   Pau'an  
## 10 Darth Vader     202 male   Human   
## # ... with 77 more rows
```
…
.right-column[

```r
starwars %>%
  group_by(species) %>%
  summarise(mean=mean(height),n=n())
```

```
## # A tibble: 38 x 3
##    species    mean     n
##    <chr>     <dbl> <int>
##  1 Aleena      79      1
##  2 Besalisk   198      1
##  3 Cerean     198      1
##  4 Chagrian   196      1
##  5 Clawdite   168      1
##  6 Droid       NA      6
##  7 Dug        112      1
##  8 Ewok        88      1
##  9 Geonosian  183      1
## 10 Gungan     209.     3
## # ... with 28 more rows
```
…
.right-column[

```r
starwars %>%
  group_by(species) %>%
  summarise(mean=mean(height,na.rm=T),n=n()) %>%
  arrange(desc(n))
```

```
## # A tibble: 38 x 3
##    species   mean     n
##    <chr>    <dbl> <int>
##  1 Human     177.    35
##  2 Droid     131.     6
##  3 <NA>      181.     4
##  4 Gungan    209.     3
##  5 Kaminoan  221      2
##  6 Mirialan  168      2
##  7 Twi'lek   179      2
##  8 Wookiee   231      2
##  9 Zabrak    173      2
## 10 Aleena     79      1
## # ... with 28 more rows
```
…
